{
  "urlTool": "../assets/img/tool-icon.png",
  "altTool": "develop tool",
  "titleTool": "Web Development",
  "textTool": "Lorem ipsum dolor sit amet, consectetur adipiscing elit, sed do eiusmod tempor incid-idunt ut labore et dolore magna aliqua. Lorem ipsum dolor sit amet, consectetur",
  "urlDisplay": "../assets/img/display-icon.png",
  "altDisplay": "display",
  "titleDisplay": "Graphics",
  "textDisplay": "Lorem ipsum dolor sit amet, consectetur adipiscing elit, sed do eiusmod tempor incid-idunt ut labore et dolore magna aliqua. Lorem ipsum dolor sit amet, consectetur",
  "urlUsability": "../assets/img/usability-icon.png",
  "altUsability": "Usability",
  "titleUsability": "Usability Design",
  "textUsability": "Lorem ipsum dolor sit amet, consectetur adipiscing elit, sed do eiusmod tempor incid-idunt ut labore et dolore magna aliqua. Lorem ipsum dolor sit amet, consectetur"
}
